blink/blink.vcd
$date
  Sun Nov 11 19:54:13 2018
$end
$version
  GHDL v0
$end
$timescale
  1 fs
$end
$var reg 1 ! x $end
$var reg 1 " phi $end
$enddefinitions $end
#0
0!
0"
#5000000
1!
1"
#10000000
0"
#15000000
0!
1"
#20000000
0"
#25000000
1!
1"
#30000000
0"
#35000000
0!
1"
#40000000
0"
#45000000
1!
1"
#50000000
0"
#55000000
0!
1"
#60000000
0"
#65000000
1!
1"
#70000000
0"
#75000000
0!
1"
#80000000
0"
#85000000
1!
1"
#90000000
0"
#95000000
0!
1"
#100000000
0"
#105000000
1!
1"
#110000000
0"
#115000000
0!
1"
#120000000
0"
#125000000
1!
1"
#130000000
0"
#135000000
0!
1"
#140000000
0"
#145000000
1!
1"
#150000000
0"
#155000000
0!
1"
#160000000
0"
#165000000
1!
1"
#170000000
0"
#175000000
0!
1"
#180000000
0"
#185000000
1!
1"
#190000000
0"
#195000000
0!
1"
#200000000
0"
#205000000
1!
1"
#210000000
0"
#215000000
0!
1"
#220000000
0"
#225000000
1!
1"
#230000000
0"
#235000000
0!
1"
#240000000
0"
#245000000
1!
1"
#250000000
0"
#255000000
0!
1"
#260000000
0"
#265000000
1!
1"
#270000000
0"
#275000000
0!
1"
#280000000
0"
#285000000
1!
1"
#290000000
0"
#295000000
0!
1"
#300000000
0"
#305000000
1!
1"
#310000000
0"
#315000000
0!
1"
#320000000
0"
#325000000
1!
1"
#330000000
0"
#335000000
0!
1"
#340000000
0"
#345000000
1!
1"
#350000000
0"
#355000000
0!
1"
#360000000
0"
#365000000
1!
1"
#370000000
0"
#375000000
0!
1"
#380000000
0"
#385000000
1!
1"
#390000000
0"
#395000000
0!
1"
#400000000
0"
#405000000
1!
1"
#410000000
0"
#415000000
0!
1"
#420000000
0"
#425000000
1!
1"
#430000000
0"
#435000000
0!
1"
#440000000
0"
#445000000
1!
1"
#450000000
0"
#455000000
0!
1"
#460000000
0"
#465000000
1!
1"
#470000000
0"
#475000000
0!
1"
#480000000
0"
#485000000
1!
1"
#490000000
0"
#495000000
0!
1"
#500000000
0"
#505000000
1!
1"
#510000000
0"
#515000000
0!
1"
#520000000
0"
#525000000
1!
1"
#530000000
0"
#535000000
0!
1"
#540000000
0"
#545000000
1!
1"
#550000000
0"
#555000000
0!
1"
#560000000
0"
#565000000
1!
1"
#570000000
0"
#575000000
0!
1"
#580000000
0"
#585000000
1!
1"
#590000000
0"
#595000000
0!
1"
#600000000
0"
#605000000
1!
1"
#610000000
0"
#615000000
0!
1"
#620000000
0"
#625000000
1!
1"
#630000000
0"
#635000000
0!
1"
#640000000
0"
#645000000
1!
1"
#650000000
0"
#655000000
0!
1"
#660000000
0"
#665000000
1!
1"
#670000000
0"
#675000000
0!
1"
#680000000
0"
#685000000
1!
1"
#690000000
0"
#695000000
0!
1"
#700000000
0"
#705000000
1!
1"
#710000000
0"
#715000000
0!
1"
#720000000
0"
#725000000
1!
1"
#730000000
0"
#735000000
0!
1"
#740000000
0"
#745000000
1!
1"
#750000000
0"
#755000000
0!
1"
#760000000
0"
#765000000
1!
1"
#770000000
0"
#775000000
0!
1"
#780000000
0"
#785000000
1!
1"
#790000000
0"
#795000000
0!
1"
#800000000
0"
#805000000
1!
1"
#810000000
0"
#815000000
0!
1"
#820000000
0"
#825000000
1!
1"
#830000000
0"
#835000000
0!
1"
#840000000
0"
#845000000
1!
1"
#850000000
0"
#855000000
0!
1"
#860000000
0"
#865000000
1!
1"
#870000000
0"
#875000000
0!
1"
#880000000
0"
#885000000
1!
1"
#890000000
0"
#895000000
0!
1"
#900000000
0"
#905000000
1!
1"
#910000000
0"
#915000000
0!
1"
#920000000
0"
#925000000
1!
1"
#930000000
0"
#935000000
0!
1"
#940000000
0"
#945000000
1!
1"
#950000000
0"
#955000000
0!
1"
#960000000
0"
#965000000
1!
1"
#970000000
0"
#975000000
0!
1"
#980000000
0"
#985000000
1!
1"
#990000000
0"
#995000000
0!
1"
#1000000000
0"
